[{
        "symbol": "so____",
        "imageFile": "clear-sky-day.svg",
        "description": "sunny"
    },
    {
        "symbol": "ms____",
        "imageFile": "clear-sky-day.svg",
        "description": "mostly sunny"
    },
    {
        "symbol": "nb____",
        "imageFile": "fog.svg",
        "description": "fog"
    },
    {
        "symbol": "ns____",
        "imageFile": "fog.svg",
        "description": "partly fog"
    },
    {
        "symbol": "bd____",
        "imageFile": "scattered-clouds.svg",
        "description": "overcast"
    },
    {
        "symbol": "bw____",
        "imageFile": "few-clouds-day.svg",
        "description": "cloudy"
    },
    {
        "symbol": "wb____",
        "imageFile": "scattered-clouds.svg",
        "description": "various clouds"
    },
    {
        "symbol": "bdr1__",
        "imageFile": "rain.svg",
        "description": "overcast light rain"
    },
    {
        "symbol": "bwr1__",
        "imageFile": "rain.svg",
        "description": "cloudy light rain"
    },
    {
        "symbol": "wbr1__",
        "imageFile": "rain.svg",
        "description": "various clouds light rain"
    },
    {
        "symbol": "bdr2__",
        "imageFile": "rain.svg",
        "description": "overcast rain"
    },
    {
        "symbol": "bwr2__",
        "imageFile": "rain.svg",
        "description": "cloudy rain"
    },
    {
        "symbol": "wbr2__",
        "imageFile": "rain.svg",
        "description": "various clouds rain"
    },
    {
        "symbol": "bdr3__",
        "imageFile": "rain.svg",
        "description": "overcast heavy rain"
    },
    {
        "symbol": "bwr3__",
        "imageFile": "rain.svg",
        "description": "cloudy heavy rain"
    },
    {
        "symbol": "wbr3__",
        "imageFile": "rain.svg",
        "description": "various clouds heavy rain"
    },
    {
        "symbol": "bds1__",
        "imageFile": "rain.svg",
        "description": "overcast isolated showers"
    },
    {
        "symbol": "bws1__",
        "imageFile": "rain.svg",
        "description": "cloudy isolated showers"
    },
    {
        "symbol": "wbs1__",
        "imageFile": "rain.svg",
        "description": "various clouds isolated showers"
    },
    {
        "symbol": "bds2__",
        "imageFile": "rain.svg",
        "description": "overcast showers"
    },
    {
        "symbol": "bws2__",
        "imageFile": "rain.svg",
        "description": "cloudy showers"
    },
    {
        "symbol": "wbs2__",
        "imageFile": "rain.svg",
        "description": "various clouds showers"
    },
    {
        "symbol": "bds3__",
        "imageFile": "rain.svg",
        "description": "overcast heavy showers"
    },
    {
        "symbol": "bws3__",
        "imageFile": "rain.svg",
        "description": "cloudy heavy showers"
    },
    {
        "symbol": "wbs3__",
        "imageFile": "rain.svg",
        "description": "various clouds heavy showers"
    },
    {
        "symbol": "bdsn1_",
        "imageFile": "snow.svg",
        "description": "overcast light snow"
    },
    {
        "symbol": "bwsn1_",
        "imageFile": "snow.svg",
        "description": "cloudy light snow"
    },
    {
        "symbol": "wbsn1_",
        "imageFile": "snow.svg",
        "description": "various clouds light snow"
    },
    {
        "symbol": "bdsn2_",
        "imageFile": "snow.svg",
        "description": "overcast snow"
    },
    {
        "symbol": "bwsn2_",
        "imageFile": "snow.svg",
        "description": "cloudy snow"
    },
    {
        "symbol": "wbsn2_",
        "imageFile": "snow.svg",
        "description": "various clouds snow"
    },
    {
        "symbol": "bdsn3_",
        "imageFile": "snow.svg",
        "description": "overcast heavy snow"
    },
    {
        "symbol": "bwsn3_",
        "imageFile": "snow.svg",
        "description": "cloudy heavy snow"
    },
    {
        "symbol": "wbsn3_",
        "imageFile": "snow.svg",
        "description": "various clouds heavy snow"
    },
    {
        "symbol": "bdsns1",
        "imageFile": "snow.svg",
        "description": "overcast isolated snow showers"
    },
    {
        "symbol": "bwsns1",
        "imageFile": "snow.svg",
        "description": "cloudy isolated snow showers"
    },
    {
        "symbol": "wbsns1",
        "imageFile": "snow.svg",
        "description": "various clouds isolated snow showers"
    },
    {
        "symbol": "bdsns2",
        "imageFile": "snow.svg",
        "description": "overcast snow showers"
    },
    {
        "symbol": "bwsns2",
        "imageFile": "snow.svg",
        "description": "cloudy snow showers"
    },
    {
        "symbol": "wbsns2",
        "imageFile": "snow.svg",
        "description": "various clouds snow showers"
    },
    {
        "symbol": "bdsns3",
        "imageFile": "snow.svg",
        "description": "overcast heavy snow showers"
    },
    {
        "symbol": "bwsns3",
        "imageFile": "snow.svg",
        "description": "cloudy heavy snow showers"
    },
    {
        "symbol": "wbsns3",
        "imageFile": "snow.svg",
        "description": "various clouds heavy snow showers"
    },
    {
        "symbol": "bdsg__",
        "imageFile": "snow.svg",
        "description": "overcast thunder with snow"
    },
    {
        "symbol": "bwsg__",
        "imageFile": "snow.svg",
        "description": "cloudy thunder with snow"
    },
    {
        "symbol": "wbsg__",
        "imageFile": "snow.svg",
        "description": "various clouds thunder with snow"
    },
    {
        "symbol": "bdg1__",
        "imageFile": "thunderstorm.svg",
        "description": "overcast isolated showers and thunderstorms"
    },
    {
        "symbol": "bwg1__",
        "imageFile": "thunderstorm.svg",
        "description": "cloudy isolated showers and thunderstorms"
    },
    {
        "symbol": "wbg1__",
        "imageFile": "thunderstorm.svg",
        "description": "various clouds isolated showers and thunderstorms"
    },
    {
        "symbol": "bdg2__",
        "imageFile": "thunderstorm.svg",
        "description": "overcast showers and thunderstorms"
    },
    {
        "symbol": "bwg2__",
        "imageFile": "thunderstorm.svg",
        "description": "cloudy showers and thunderstorms"
    },
    {
        "symbol": "wbg2__",
        "imageFile": "thunderstorm.svg",
        "description": "various clouds showers and thunderstorms"
    },
    {
        "symbol": "bdg3__",
        "imageFile": "thunderstorm.svg",
        "description": "overcast heavy showers and thunderstorms"
    },
    {
        "symbol": "bwg3__",
        "imageFile": "thunderstorm.svg",
        "description": "cloudy heavy showers and thunderstorms"
    },
    {
        "symbol": "wbg3__",
        "imageFile": "thunderstorm.svg",
        "description": "various clouds heavy showers and thunderstorms"
    }
]
